…
    ## Conflicts with tidy packages ----------------------------------------------

    ## filter(): dplyr, stats
    ## lag():    dplyr, stats

### Step 3. Obtain Basic Information

``` r
gapminder
```

    ## # A tibble: 1,704 x 6
    ##        country continent  year lifeExp      pop gdpPercap
    ##         <fctr>    <fctr> <int>   <dbl>    <int>     <dbl>
    ##  1 Afghanistan      Asia  1952  28.801  8425333  779.4453
    ##  2 Afghanistan      Asia  1957  30.332  9240934  820.8530
    ##  3 Afghanistan      Asia  1962  31.997 10267083  853.1007
    ##  4 Afghanistan      Asia  1967  34.020 11537966  836.1971
    ##  5 Afghanistan      Asia  1972  36.088 13079460  739.9811
    ##  6 Afghanistan      Asia  1977  38.438 14880372  786.1134
    ##  7 Afghanistan      Asia  1982  39.854 12881816  978.0114
    ##  8 Afghanistan      Asia  1987  40.822 13867957  852.3959
    ##  9 Afghanistan      Asia  1992  41.674 16317921  649.3414
    ## 10 Afghanistan      Asia  1997  41.763 22227415  635.3414
    ## # ... with 1,694 more rows
…
    ## Classes 'tbl_df', 'tbl' and 'data.frame':    1704 obs. of  6 variables:
    ##  $ country  : Factor w/ 142 levels "Afghanistan",..: 1 1 1 1 1 1 1 1 1 1 ...
    ##  $ continent: Factor w/ 5 levels "Africa","Americas",..: 3 3 3 3 3 3 3 3 3 3 ...
    ##  $ year     : int  1952 1957 1962 1967 1972 1977 1982 1987 1992 1997 ...
    ##  $ lifeExp  : num  28.8 30.3 32 34 36.1 ...
    ##  $ pop      : int  8425333 9240934 10267083 11537966 13079460 14880372 12881816 13867957 16317921 22227415 ...
    ##  $ gdpPercap: num  779 821 853 836 740 ...

``` r
as_tibble(iris)
```

    ## # A tibble: 150 x 5
    ##    Sepal.Length Sepal.Width Petal.Length Petal.Width Species
    ##           <dbl>       <dbl>        <dbl>       <dbl>  <fctr>
    ##  1          5.1         3.5          1.4         0.2  setosa
    ##  2          4.9         3.0          1.4         0.2  setosa
    ##  3          4.7         3.2          1.3         0.2  setosa
    ##  4          4.6         3.1          1.5         0.2  setosa
    ##  5          5.0         3.6          1.4         0.2  setosa
    ##  6          5.4         3.9          1.7         0.4  setosa
    ##  7          4.6         3.4          1.4         0.3  setosa
    ##  8          5.0         3.4          1.5         0.2  setosa
    ##  9          4.4         2.9          1.4         0.2  setosa
    ## 10          4.9         3.1          1.5         0.1  setosa
    ## # ... with 140 more rows
…
